"vertexlitgeneric"
{
	"$basetexture" "models/Timmy2985/Tardis/Interior/screen2"
	"$surfaceprop" "metal"
	"$nodecal" "1"
	"$selfillum" 1
        "$selfillummask" "models/Timmy2985/Tardis/Interior/roundels"
		"Proxies"
		{
			"AnimatedTexture"
				{
					"animatedTextureVar" "$basetexture"
					"animatedTextureFrameNumVar" "$frame"
					"animatedTextureFrameRate" "10"
				}
		}
}