"VertexLitGeneric"
{
	"$basetexture" "models\Timmy2985\Tardis\Exterior\extdoor"
	"$selfillum" 1
        "$selfillummask" "models\Timmy2985\Tardis\Exterior\white"
	"$surfaceprop" "Glass"
	Proxies
	{
		"AnimatedTexture"
			{
				"animatedTextureVar" "$basetexture"
				"animatedTextureFrameNumVar" "$frame"
				"animatedTextureFrameRate" "7"
			}
	}
}
